Ratatouille/simulation/qsim/ratatouille.msim.vcd
$comment
	File created using the following command:
		vcd file ratatouille.msim.vcd -direction
$end
$date
	Wed Nov 20 19:55:12 2024
$end
$version
	ModelSim Version 10.1d
$end
$timescale
	1ps
$end
$scope module Celda_vlg_vec_tst $end
$var reg 3 ! Adelante [2:0] $end
$var reg 3 " Atras [2:0] $end
$var reg 1 # CLK $end
$var reg 3 $ Derecha [2:0] $end
$var reg 4 % hab_escrit [3:0] $end
$var reg 3 & Izquierda [2:0] $end
$var reg 1 ' Muro_Ad $end
$var reg 1 ( Muro_At $end
$var reg 1 ) Muro_Der $end
$var reg 1 * Muro_Izq $end
$var reg 1 + Reset $end
$var wire 1 , muros_ady [3] $end
$var wire 1 - muros_ady [2] $end
$var wire 1 . muros_ady [1] $end
$var wire 1 / muros_ady [0] $end
$var wire 1 0 Peso [2] $end
$var wire 1 1 Peso [1] $end
$var wire 1 2 Peso [0] $end
$var wire 1 3 sampler $end
$scope module i1 $end
$var wire 1 4 gnd $end
$var wire 1 5 vcc $end
$var wire 1 6 unknown $end
$var tri1 1 7 devclrn $end
$var tri1 1 8 devpor $end
$var tri1 1 9 devoe $end
$var wire 1 : inst|LessThan0~1_combout $end
$var wire 1 ; inst|LessThan7~0_combout $end
$var wire 1 < inst|process_0~13_combout $end
$var wire 1 = inst|process_0~14_combout $end
$var wire 1 > inst|process_0~15_combout $end
$var wire 1 ? inst|process_0~18_combout $end
$var wire 1 @ Muro_Izq~input_o $end
$var wire 1 A Izquierda[0]~input_o $end
$var wire 1 B muros_ady[3]~output_o $end
$var wire 1 C muros_ady[2]~output_o $end
$var wire 1 D muros_ady[1]~output_o $end
$var wire 1 E muros_ady[0]~output_o $end
$var wire 1 F Peso[2]~output_o $end
$var wire 1 G Peso[1]~output_o $end
$var wire 1 H Peso[0]~output_o $end
$var wire 1 I CLK~input_o $end
$var wire 1 J CLK~inputclkctrl_outclk $end
$var wire 1 K hab_escrit[3]~input_o $end
$var wire 1 L Muro_Ad~input_o $end
$var wire 1 M inst3|estado~0_combout $end
$var wire 1 N Reset~input_o $end
$var wire 1 O Reset~inputclkctrl_outclk $end
$var wire 1 P inst3|estado~q $end
$var wire 1 Q hab_escrit[2]~input_o $end
$var wire 1 R Muro_At~input_o $end
$var wire 1 S inst5|estado~0_combout $end
$var wire 1 T inst5|estado~q $end
$var wire 1 U Muro_Der~input_o $end
$var wire 1 V hab_escrit[1]~input_o $end
$var wire 1 W inst8|estado~0_combout $end
$var wire 1 X inst8|estado~q $end
$var wire 1 Y hab_escrit[0]~input_o $end
$var wire 1 Z inst11|estado~0_combout $end
$var wire 1 [ inst11|estado~q $end
$var wire 1 \ Derecha[1]~input_o $end
$var wire 1 ] Atras[2]~input_o $end
$var wire 1 ^ inst|LessThan0~0_combout $end
$var wire 1 _ Derecha[2]~input_o $end
$var wire 1 ` Adelante[1]~input_o $end
$var wire 1 a Derecha[0]~input_o $end
$var wire 1 b inst|LessThan1~4_combout $end
$var wire 1 c inst|LessThan1~5_combout $end
$var wire 1 d Izquierda[2]~input_o $end
$var wire 1 e Izquierda[1]~input_o $end
$var wire 1 f Adelante[0]~input_o $end
$var wire 1 g inst|LessThan2~0_combout $end
$var wire 1 h Adelante[2]~input_o $end
$var wire 1 i inst|process_0~10_combout $end
$var wire 1 j inst|process_0~11_combout $end
$var wire 1 k inst|process_0~12_combout $end
$var wire 1 l Atras[1]~input_o $end
$var wire 1 m inst|LessThan7~1_combout $end
$var wire 1 n inst|LessThan6~4_combout $end
$var wire 1 o inst|LessThan6~5_combout $end
$var wire 1 p inst|Min_Out[2]~0_combout $end
$var wire 1 q inst|Min_Out[2]~1_combout $end
$var wire 1 r inst|Min_Out[2]~2_combout $end
$var wire 1 s inst|Min_Out[2]~3_combout $end
$var wire 1 t inst|Min_Out[2]~4_combout $end
$var wire 1 u inst|LessThan5~0_combout $end
$var wire 1 v Atras[0]~input_o $end
$var wire 1 w inst|LessThan4~0_combout $end
$var wire 1 x inst|LessThan4~1_combout $end
$var wire 1 y inst|process_0~16_combout $end
$var wire 1 z inst|LessThan3~4_combout $end
$var wire 1 { inst|process_0~17_combout $end
$var wire 1 | inst|Min_Out[2]~5_combout $end
$var wire 1 } inst|Min_Out[2]~6_combout $end
$var wire 1 ~ inst|Min_Out[1]~9_combout $end
$var wire 1 !! inst|Min_Out[1]~10_combout $end
$var wire 1 "! inst|Min_Out[2]~7_combout $end
$var wire 1 #! inst|Min_Out[2]~8_combout $end
$var wire 1 $! inst|Min_Out[0]~11_combout $end
$var wire 1 %! inst|Min_Out[0]~12_combout $end
$var wire 1 &! inst16|Add0~0_combout $end
$var wire 1 '! inst16|Add0~1_combout $end
$var wire 1 (! inst2|reg_val [2] $end
$var wire 1 )! inst2|reg_val [1] $end
$var wire 1 *! inst2|reg_val [0] $end
$var wire 1 +! inst7|$00000|auto_generated|result_node [2] $end
$var wire 1 ,! inst7|$00000|auto_generated|result_node [1] $end
$var wire 1 -! inst7|$00000|auto_generated|result_node [0] $end
$var wire 1 .! inst17|$00000|auto_generated|result_node [2] $end
$var wire 1 /! inst17|$00000|auto_generated|result_node [1] $end
$var wire 1 0! inst17|$00000|auto_generated|result_node [0] $end
$var wire 1 1! inst9|$00000|auto_generated|result_node [2] $end
$var wire 1 2! inst9|$00000|auto_generated|result_node [1] $end
$var wire 1 3! inst9|$00000|auto_generated|result_node [0] $end
$var wire 1 4! inst6|$00000|auto_generated|result_node [2] $end
$var wire 1 5! inst6|$00000|auto_generated|result_node [1] $end
$var wire 1 6! inst6|$00000|auto_generated|result_node [0] $end
$upscope $end
$upscope $end
$enddefinitions $end
#0
$dumpvars
b11 !
b101 "
0#
b101 $
b1001 %
b11 &
1'
1(
0)
1*
0+
0/
0.
0-
0,
02
01
00
x3
04
15
x6
17
18
19
1:
0;
1<
1=
1>
0?
1@
1A
0B
0C
0D
0E
0F
0G
0H
0I
0J
1K
1L
1M
0N
0O
0P
0Q
1R
0S
0T
0U
0V
0W
0X
1Y
1Z
0[
0\
1]
1^
1_
1`
1a
1b
0c
0d
1e
1f
0g
0h
1i
1j
1k
0l
0m
0n
0o
0p
0q
0r
0s
0t
0u
1v
0w
0x
0y
0z
0{
1|
0}
0~
1!!
0"!
0#!
1$!
0%!
1&!
0'!
0*!
0)!
0(!
1-!
0,!
1+!
10!
1/!
0.!
13!
12!
01!
16!
05!
14!
$end
#3135
0*
0@
03
0Z
#3960
0(
0R
13
#5000
1#
1I
1J
03
1(!
1P
1.!
1c
0^
1F
1B
10
1,
1#!
0i
0k
0&!
0j
1}
0|
0$!
1~
0#!
0!!
1!!
1'!
0'!
1&!
#10000
0#
0I
0J
13
#14160
1(
1R
03
#15000
1#
1I
1J
13
#16935
1*
1@
03
1Z
#20000
0(
0#
0R
0I
0J
13
#20716
0*
0@
03
0Z
#25000
1#
1I
1J
13
#26216
1*
1@
03
1Z
#30000
0#
0I
0J
13
#31943
1(
1R
03
#32220
0*
0@
13
0Z
#35000
1#
1I
1J
03
#39343
0(
0R
13
#40000
0#
0I
0J
03
#40385
1(
1R
13
#43584
0(
0R
03
#45000
1#
1I
1J
13
#45820
1*
1@
03
1Z
#47051
1(
1R
13
#50000
0#
0*
0I
0@
0J
03
0Z
#50250
0(
0R
13
#51072
1*
1@
03
1Z
#53717
1(
1R
13
#55000
1#
1I
1J
03
1[
11!
1E
1/
1"!
1r
1i
0<
1#!
1s
1j
0>
0&!
1t
0}
1%!
1$!
0~
1'!
1&!
0%!
0!!
#56472
0*
0@
13
#56916
0(
0R
03
#60000
0#
0I
0J
13
#61072
1*
1@
03
#62679
1(
1R
13
#65000
1#
1I
1J
03
1)!
1G
11
#66472
0*
0@
13
#66579
0(
0R
03
#70000
0#
0I
0J
13
#70833
1*
1@
03
#72679
1(
1R
13
#75000
1#
1I
1J
03
#76579
0(
0R
13
#80000
0#
0I
0J
03
#81058
1(
1R
13
#81233
0*
0@
03
#85000
1#
1I
1J
13
#85858
0(
0R
03
#90000
1*
0#
1@
0I
0J
13
#93973
0*
0@
03
#95000
1#
1I
1J
13
#95275
1(
1R
03
#98875
0(
0R
13
#99473
1*
1@
03
#100000
0#
0I
0J
13
#101380
1(
1R
03
#103973
0*
0@
13
#104030
0(
0R
03
#105000
1#
1I
1J
13
#106380
1(
1R
03
#109030
0(
0R
13
#109473
1*
1@
03
#110000
0#
1(
0*
0I
1R
0@
0J
13
#113104
0(
0R
03
#115000
1#
1I
1J
13
#115647
1*
1@
03
#119647
0*
0@
13
#119804
1(
1R
03
#120000
0#
0(
0I
0R
0J
13
#120408
1(
1R
03
#125000
1#
1I
1J
13
#125647
1*
1@
03
#126208
0(
0R
13
#129647
0*
0@
03
#130000
0#
1*
0I
1@
0J
13
#130277
0*
0@
03
#130408
1(
1R
13
#134744
1*
1@
03
#135000
1#
1I
1J
13
#136208
0(
0R
03
#136943
0*
0@
13
#140000
0#
1(
0I
1R
0J
03
#141410
1*
1@
13
#143609
0*
0@
03
#145000
1#
1I
1J
13
#145405
0(
0R
03
#148076
1*
1@
13
#149805
1(
1R
03
#150000
0#
0*
0I
0@
0J
13
#155000
1#
1I
1J
03
#157450
1*
1@
13
#159662
0(
0R
03
#160000
0#
0I
0J
13
#163450
0*
0@
03
#165000
1#
1I
1J
13
#169862
1(
1R
03
#170000
1*
0#
0(
1@
0I
0R
0J
13
#170712
1(
1R
03
#171195
0*
0@
13
#172845
0(
0R
03
#175000
1#
1I
1J
13
#177295
1*
1@
03
#177378
1(
1R
13
#179511
0(
0R
03
#180000
0#
0*
0I
0@
0J
13
#183761
1*
1@
03
#184044
1(
1R
13
#185000
1#
1I
1J
03
#186177
0(
0R
13
#186360
0*
0@
03
#190000
0#
1(
0I
1R
0J
13
#190427
1*
1@
03
#191984
0(
0R
13
#193026
0*
0@
03
#195000
1#
1I
1J
13
#197093
1*
1@
03
#198684
1(
1R
13
#199692
0*
0@
03
#200000
0#
0I
0J
13
#201593
1*
1@
03
#201984
0(
0R
13
#202926
0*
0@
03
#204926
1*
1@
13
#205000
1#
1I
1J
03
#206259
0*
0@
13
#208259
1*
1@
03
#208684
1(
1R
13
#209592
0*
0@
03
#210000
0#
0(
0I
0R
0J
13
#210284
1(
1R
03
#212384
0(
0R
13
#212643
1*
1@
03
#215000
1#
1I
1J
13
#215284
1(
1R
03
#215743
0*
0@
13
#217384
0(
0R
03
#220000
0#
1*
1(
0I
1@
1R
0J
13
#220220
0(
0R
03
#221677
0*
0@
13
#224527
1*
1@
03
#225000
1#
1I
1J
13
#226220
1(
1R
03
#226677
0*
0@
13
#229527
1*
1@
03
#230000
0#
0I
0J
13
#232435
0(
0R
03
#233734
0*
0@
13
#234935
1(
1R
03
#235000
1#
1I
1J
13
#237435
0(
0R
03
#239134
1*
1@
13
#239935
1(
1R
03
#240000
0#
0I
0J
13
#240254
0(
0R
03
#241272
0*
0@
13
#241854
1(
1R
03
#243587
0(
0R
13
#245000
1#
1I
1J
03
#245187
1(
1R
13
#246920
0(
0R
03
#248272
1*
1@
13
#248520
1(
1R
03
#250000
0#
0(
0I
0R
0J
13
#251272
0*
0@
03
#252475
1(
1R
13
#255000
1#
1I
1J
03
#256675
0(
0R
13
#258272
1*
1@
03
#260000
0#
0*
0I
0@
0J
13
#260082
1*
1@
03
#261848
0*
0@
13
#262475
1(
1R
03
#263415
1*
1@
13
#265000
1#
1I
1J
03
#265181
0*
0@
13
#266675
0(
0R
03
#266748
1*
1@
13
#268514
0*
0@
03
#270000
0#
0I
0J
13
#272588
1*
1@
03
#273091
1(
1R
13
#274838
0*
0@
03
#275000
1#
1I
1J
13
#275224
0(
0R
03
#277588
1*
1@
13
#279757
1(
1R
03
#279838
0*
0@
13
#280000
0#
1*
0I
1@
0J
03
#280890
0*
0@
13
#281890
0(
0R
03
#284423
1*
1@
13
#285000
1#
1I
1J
03
#286423
1(
1R
13
#287556
0*
0@
03
#288556
0(
0R
13
#290000
0#
0I
0J
03
#291089
1*
1@
13
#294222
0*
0@
03
#294598
1(
1R
13
#295000
1#
1I
1J
03
#297698
0(
0R
13
#297755
1*
1@
03
#300000
0#
0*
0I
0@
0J
13
#300487
1*
1@
03
#303387
0*
0@
13
#303427
1(
1R
03
#305000
1#
1I
1J
13
#305487
1*
1@
03
#305893
0(
0R
13
#308387
0*
0@
03
#310000
0#
0I
0J
13
#310045
1*
1@
03
#310093
1(
1R
13
#312559
0(
0R
03
#313745
0*
0@
13
#315000
1#
1I
1J
03
#316759
1(
1R
13
#319225
0(
0R
03
#320000
0#
0I
0J
13
#321845
1*
1@
03
#325000
1#
1I
1J
13
#325826
1(
1R
03
#326245
0*
0@
13
#329026
0(
0R
03
#330000
0#
0I
0J
13
#331845
1*
1@
03
#335000
1#
1I
1J
13
#335826
1(
1R
03
#336245
0*
0@
13
#339026
0(
0R
03
#340000
0#
0I
0J
13
#340186
1*
1@
03
#340324
1(
1R
13
#341690
0(
0R
03
#342385
0*
0@
13
#343657
1(
1R
03
#345000
1#
1I
1J
13
#345023
0(
0R
03
#346852
1*
1@
13
#346990
1(
1R
03
#348356
0(
0R
13
#349051
0*
0@
03
#350000
0#
1(
0I
1R
0J
13
#353518
1*
1@
03
#355000
1#
1I
1J
13
#355717
0*
0@
03
#359148
0(
0R
13
#360000
0#
1*
0I
1@
0J
03
#362311
0*
0@
13
#365000
1#
1I
1J
03
#368611
1*
1@
13
#369948
1(
1R
03
#370000
0#
0(
0I
0R
0J
13
#372167
0*
0@
03
#373906
1(
1R
13
#375000
1#
1I
1J
03
#377606
0(
0R
13
#378467
1*
1@
03
#380000
0#
0*
0I
0@
0J
13
#381085
1*
1@
03
#382551
0*
0@
13
#383906
1(
1R
03
#384418
1*
1@
13
#385000
1#
1I
1J
03
#385884
0*
0@
13
#387606
0(
0R
03
#387751
1*
1@
13
#389217
0*
0@
03
#390000
0#
0I
0J
13
#392935
1*
1@
03
#394955
1(
1R
13
#395000
1#
1I
1J
03
#395935
0*
0@
13
#400000
0#
0I
0J
03
#402935
1*
1@
13
#404555
0(
0R
03
#405000
1#
1I
1J
13
#405935
0*
0@
03
#410000
0#
0I
0J
13
#411319
1*
1@
03
#411321
1(
1R
13
#412920
0(
0R
03
#414654
1(
1R
13
#415000
1#
1I
1J
03
#415519
0*
0@
13
#416253
0(
0R
03
#417987
1(
1R
13
#419586
0(
0R
03
#420000
0#
0I
0J
13
#420572
1(
1R
03
#421319
1*
1@
13
#423038
0(
0R
03
#425000
1#
1I
1J
13
#425519
0*
0@
03
#427238
1(
1R
13
#429704
0(
0R
03
#430000
0#
0I
0J
13
#430288
1*
1@
03
#431521
0*
0@
13
#433621
1*
1@
03
#433904
1(
1R
13
#434854
0*
0@
03
#435000
1#
1I
1J
13
#436370
0(
0R
03
#436954
1*
1@
13
#438187
0*
0@
03
#440000
0#
0I
0J
13
#440306
1*
1@
03
#444206
0*
0@
13
#445000
1#
1I
1J
03
#446523
1(
1R
13
#450000
1*
0#
1@
0I
0J
03
#453461
0*
0@
13
#455000
1#
1I
1J
03
#457323
0(
0R
13
#460000
0#
0I
0J
03
#460588
1(
1R
13
#461661
1*
1@
03
#462154
0(
0R
13
#463921
1(
1R
03
#465000
1#
1I
1J
13
#465487
0(
0R
03
#467254
1(
1R
13
#468820
0(
0R
03
#470000
0*
0#
0@
0I
0J
13
#473079
1(
1R
03
#473684
1*
1@
13
#475000
1#
1I
1J
03
#475678
0(
0R
13
#476984
0*
0@
03
#479745
1(
1R
13
#480000
0#
1*
0I
1@
0J
03
#482344
0(
0R
13
#485000
1#
1I
1J
03
#486411
1(
1R
13
#487593
0*
0@
03
#489010
0(
0R
13
#490000
0#
1(
0I
1R
0J
03
#491275
0(
0R
13
#495000
1#
1I
1J
03
#495808
1(
1R
13
#497593
1*
1@
03
#497941
0(
0R
13
#500000
0#
0I
0J
03
#500947
0*
0@
13
#502474
1(
1R
03
#504607
0(
0R
13
#505000
1#
1I
1J
03
#506247
1*
1@
13
#509140
1(
1R
03
#510000
0#
0(
0I
0R
0J
13
#510947
0*
0@
03
#511595
1(
1R
13
#512894
0(
0R
03
#514928
1(
1R
13
#515000
1#
1I
1J
03
#516227
0(
0R
13
#516247
1*
1@
03
#518261
1(
1R
13
#519560
0(
0R
03
#520000
0#
0I
0J
13
#520435
0*
0@
03
#522144
1(
1R
13
#522269
1*
1@
03
#523768
0*
0@
13
#525000
1#
1I
1J
03
#525602
1*
1@
13
#526044
0(
0R
03
#527101
0*
0@
13
#528935
1*
1@
03
#530000
0#
0*
0I
0@
0J
13
#532144
1(
1R
03
#532782
1*
1@
13
#535000
1#
1I
1J
03
#535515
0*
0@
13
#536044
0(
0R
03
#539448
1*
1@
13
#540000
0#
1(
0I
1R
0J
03
#541806
0(
0R
13
#542181
0*
0@
03
#545000
1#
1I
1J
13
#546114
1*
1@
03
#547206
1(
1R
13
#548847
0*
0@
03
#550000
0#
1*
0I
1@
0J
13
#550830
0*
0@
03
#551806
0(
0R
13
#553430
1*
1@
03
#555000
1#
1I
1J
13
#555830
0*
0@
03
#557206
1(
1R
13
#558430
1*
1@
03
#560000
0#
0(
0I
0R
0J
13
#560627
0*
0@
03
#561293
1(
1R
13
#562761
1*
1@
03
#563960
0*
0@
13
#565000
1#
1I
1J
03
#566094
1*
1@
13
#567293
0*
0@
03
#569427
1*
1@
13
#569693
0(
0R
03
#570000
0#
0I
0J
13
#571956
0*
0@
03
#575000
1#
1I
1J
13
#576289
1*
1@
03
#578622
0*
0@
13
#580000
1(
0#
1R
0I
0J
03
#582457
0(
0R
13
#582955
1*
1@
03
#585000
1#
1I
1J
13
#585288
0*
0@
03
#589621
1*
1@
13
#590000
0#
0*
0I
0@
0J
03
#591327
1*
1@
13
#593457
1(
1R
03
#593526
0*
0@
13
#595000
1#
1I
1J
03
#597993
1*
1@
13
#600000
0#
0I
0J
03
#600182
0(
0R
13
#600192
0*
0@
03
#602732
1(
1R
13
#604659
1*
1@
03
#605000
1#
1I
1J
13
#605182
0(
0R
03
#606858
0*
0@
13
#607732
1(
1R
03
#610000
0#
0I
0J
13
#611086
1*
1@
03
#611994
0(
0R
13
#615000
1#
1I
1J
03
#616786
0*
0@
13
#620000
0#
0I
0J
03
#620783
1*
1@
13
#622194
1(
1R
03
#622982
0*
0@
13
#625000
1#
1I
1J
03
#627449
1*
1@
13
#629648
0*
0@
03
#630000
0(
0#
0R
0I
0J
13
#630743
1(
1R
03
#633009
0(
0R
13
#634115
1*
1@
03
#635000
1#
1I
1J
13
#636314
0*
0@
03
#637409
1(
1R
13
#639675
0(
0R
03
#640000
0#
0I
0J
13
#641624
1*
1@
03
#643224
0*
0@
13
#644075
1(
1R
03
#645000
1#
1I
1J
13
#646341
0(
0R
03
#646624
1*
1@
13
#648224
0*
0@
03
#650000
0#
1*
0I
1@
0J
13
#651437
0*
0@
03
#651578
1(
1R
13
#653828
0(
0R
03
#655000
1#
1I
1J
13
#655637
1*
1@
03
#656578
1(
1R
13
#658103
0*
0@
03
#658828
0(
0R
13
#660000
0#
1(
0I
1R
0J
03
#660973
0(
0R
13
#662303
1*
1@
03
#663473
1(
1R
13
#664769
0*
0@
03
#665000
1#
1I
1J
13
#665973
0(
0R
03
#668473
1(
1R
13
#668969
1*
1@
03
#670000
0#
0I
0J
13
#670202
0(
0R
03
#672778
0*
0@
13
#675000
1#
1I
1J
03
#675402
1(
1R
13
#680000
0#
0I
0J
03
#680202
0(
0R
13
#685000
1#
1I
1J
03
#685402
1(
1R
13
#686778
1*
1@
03
#690000
0#
0(
0*
0I
0R
0@
0J
13
#693288
1(
1R
03
#695000
1#
1I
1J
13
#696083
1*
1@
03
#699083
0*
0@
13
#699688
0(
0R
03
#700000
0#
0I
0J
13
#705000
1#
1I
1J
03
#706083
1*
1@
13
#709083
0*
0@
03
#710000
0#
0I
0J
13
#710481
1(
1R
03
#712231
0(
0R
13
#715000
1#
1I
1J
03
#715481
1(
1R
13
#717231
0(
0R
03
#720000
0#
0I
0J
13
#721025
1(
1R
03
#721306
1*
1@
13
#722158
0(
0R
03
#724358
1(
1R
13
#725000
1#
1I
1J
03
#725491
0(
0R
13
#727691
1(
1R
03
#728824
0(
0R
13
#728906
0*
0@
03
#730000
0#
1(
1*
0I
1R
1@
0J
13
#732035
0*
0@
03
#734649
0(
0R
13
#735000
1#
1I
1J
03
#736335
1*
1@
13
#740000
0#
0I
0J
03
#742035
0*
0@
13
#744849
1(
1R
03
#745000
1#
1I
1J
13
#746335
1*
1@
03
#750000
0#
0*
0I
0@
0J
13
#751939
0(
0R
03
#753473
1*
1@
13
#755000
1#
1I
1J
03
#755406
1(
1R
13
#755539
0*
0@
03
#758605
0(
0R
13
#760000
0#
0I
0J
03
#760139
1*
1@
13
#762072
1(
1R
03
#762205
0*
0@
13
#765000
1#
1I
1J
03
#765271
0(
0R
13
#766805
1*
1@
03
#768738
1(
1R
13
#768871
0*
0@
03
#770000
0#
0(
0I
0R
0J
13
#770147
1*
1@
03
#771213
0*
0@
13
#771866
1(
1R
03
#772932
0(
0R
13
#773480
1*
1@
03
#774546
0*
0@
13
#775000
1#
1I
1J
03
#775199
1(
1R
13
#776265
0(
0R
03
#776813
1*
1@
13
#777879
0*
0@
03
#778532
1(
1R
13
#779598
0(
0R
03
#780000
0#
1*
0I
1@
0J
13
#780012
1(
1R
03
#781961
0*
0@
13
#782011
0(
0R
03
#783345
1(
1R
13
#785000
1#
1I
1J
03
#785344
0(
0R
13
#785761
1*
1@
03
#786678
1(
1R
13
#788627
0*
0@
03
#788677
0(
0R
13
#790000
0#
1(
0I
1R
0J
03
#792427
1*
1@
13
#792820
0(
0R
03
#795000
1#
1I
1J
13
#795293
0*
0@
03
#799093
1*
1@
13
#800000
0#
0I
0J
03
#800966
0*
0@
13
#803233
1*
1@
03
#804299
0*
0@
13
#805000
1#
1I
1J
03
#806020
1(
1R
13
#806566
1*
1@
03
#807632
0*
0@
13
#809899
1*
1@
03
#810000
0#
0*
0I
0@
0J
13
#811578
1*
1@
03
#811717
0(
0R
13
#815000
1#
1I
1J
03
#816417
1(
1R
13
#820000
0#
0(
0I
0R
0J
03
#820262
1(
1R
13
#821178
0*
0@
03
#821261
0(
0R
13
#823595
1(
1R
03
#824594
0(
0R
13
#825000
1#
1I
1J
03
#826928
1(
1R
13
#827927
0(
0R
03
#830000
1*
0#
1@
0I
0J
13
#830525
1(
1R
03
#832253
0*
0@
13
#834925
0(
0R
03
#835000
1#
1I
1J
13
#837953
1*
1@
03
#840000
0#
0I
0J
13
#840525
1(
1R
03
#842253
0*
0@
13
#844925
0(
0R
03
#845000
1#
1I
1J
13
#847953
1*
1@
03
#850000
0#
0*
0I
0@
0J
13
#850288
1*
1@
03
#851354
0*
0@
13
#853621
1*
1@
03
#854321
1(
1R
13
#854687
0*
0@
03
#855000
1#
1I
1J
13
#856954
1*
1@
03
#858020
0*
0@
13
#860000
0#
1*
0I
1@
0J
03
#861321
0(
0R
13
#861668
0*
0@
03
#865000
1#
1I
1J
13
#865935
1*
1@
03
#868334
0*
0@
13
#870000
1(
0#
1R
0I
0J
03
#872601
1*
1@
13
#873465
0(
0R
03
#875000
1#
0*
1I
0@
1J
13
#878765
1(
1R
03
#879267
1*
1@
13
#880000
0#
0I
0J
03
#880247
0(
0R
13
#883047
1(
1R
03
#884555
0*
0@
13
#885000
1#
1I
1J
03
#886913
0(
0R
13
#889713
1(
1R
03
#889755
1*
1@
13
#890000
0#
0I
0J
03
#893579
0(
0R
13
#894555
0*
0@
03
#895000
1#
1I
1J
13
#896379
1(
1R
03
#899755
1*
1@
13
#900000
0#
0*
0I
0@
0J
03
#901649
1*
1@
13
#901876
0(
0R
03
#902848
0*
0@
13
#904982
1*
1@
03
#905000
1#
1I
1J
13
#906181
0*
0@
03
#908176
1(
1R
13
#908315
1*
1@
03
#909514
0*
0@
13
#910000
0#
0(
0I
0R
0J
03
#910222
1*
1@
13
#911217
1(
1R
03
#911421
0*
0@
13
#913083
0(
0R
03
#913555
1*
1@
13
#914550
1(
1R
03
#914754
0*
0@
13
#915000
1#
1I
1J
03
#916416
0(
0R
13
#916888
1*
1@
03
#917883
1(
1R
13
#918087
0*
0@
03
#919749
0(
0R
13
#920000
0#
0I
0J
03
#921037
1(
1R
13
#921285
1*
1@
03
#923085
0*
0@
13
#925000
1#
1I
1J
03
#926237
0(
0R
13
#926285
1*
1@
03
#928085
0*
0@
13
#930000
0#
1*
0I
1@
0J
03
#930869
0*
0@
13
#931147
1(
1R
03
#932836
1*
1@
13
#934202
0*
0@
03
#935000
1#
1I
1J
13
#936147
0(
0R
03
#936169
1*
1@
13
#937535
0*
0@
03
#939502
1*
1@
13
#940000
0#
1(
0*
0I
1R
0@
0J
03
#940401
0(
0R
13
#943001
1(
1R
03
#945000
1#
1I
1J
13
#945097
1*
1@
03
#945401
0(
0R
13
#948001
1(
1R
03
#949097
0*
0@
13
#950000
0#
0(
0I
0R
0J
03
#951975
1(
1R
13
#954475
0(
0R
03
#955000
1#
1I
1J
13
#955097
1*
1@
03
#956975
1(
1R
13
#959097
0*
0@
03
#959475
0(
0R
13
#960000
0#
1*
1(
0I
1@
1R
0J
03
#960696
0*
0@
13
#961406
0(
0R
03
#962396
1*
1@
13
#964029
0*
0@
03
#965000
1#
1I
1J
13
#965729
1*
1@
03
#966706
1(
1R
13
#967362
0*
0@
03
#969062
1*
1@
13
#970000
0#
0(
0I
0R
0J
03
#971699
1(
1R
13
#971800
0*
0@
03
#975000
1#
1I
1J
13
#975599
0(
0R
03
#977700
1*
1@
13
#980000
0#
1(
0I
1R
0J
03
#981673
0(
0R
13
#981800
0*
0@
03
#985000
1#
1I
1J
13
#986773
1(
1R
03
#987700
1*
1@
13
#990000
0#
0*
0I
0@
0J
03
#991673
0(
0R
13
#993447
1*
1@
03
#995000
1#
1I
1J
13
#996773
1(
1R
03
#998347
0*
0@
13
